127.0.0.1 - - [12/Apr/2017:17:28:51 -0300] "GET / HTTP/1.1" 404 994
127.0.0.1 - - [12/Apr/2017:17:31:28 -0300] "GET / HTTP/1.1" 404 994
127.0.0.1 - - [12/Apr/2017:17:33:49 -0300] "GET / HTTP/1.1" 404 994
127.0.0.1 - - [12/Apr/2017:17:35:24 -0300] "GET / HTTP/1.1" 404 994
127.0.0.1 - - [12/Apr/2017:17:44:09 -0300] "GET / HTTP/1.1" 404 994
